<?xml version="1.0" encoding="UTF-8" standalone="no"?>
<!DOCTYPE svg PUBLIC "-//W3C//DTD SVG 1.1//EN" "http://www.w3.org/Graphics/SVG/1.1/DTD/svg11.dtd">
<!-- Created with Vectornator (http://vectornator.io/) -->
<svg height="100%" stroke-miterlimit="10" style="fill-rule:nonzero;clip-rule:evenodd;stroke-linecap:round;stroke-linejoin:round;" version="1.1" viewBox="0 0 792 612" width="100%" xml:space="preserve" xmlns="http://www.w3.org/2000/svg" xmlns:xlink="http://www.w3.org/1999/xlink">
<defs/>
<g id="Layer-1">
<path d="M381.463 162.159C385.232 162.159 388.279 159.112 388.279 155.343L388.279 141.71C388.279 137.941 385.232 134.894 381.463 134.894C377.693 134.894 374.646 137.941 374.646 141.71L374.646 155.343C374.646 159.112 377.693 162.159 381.463 162.159ZM340.476 161.634C341.287 164.681 344.041 166.685 347.054 166.685C347.64 166.685 348.233 166.61 348.826 166.454C352.459 165.479 354.62 161.744 353.645 158.104L350.114 144.935C349.146 141.295 345.411 139.134 341.764 140.115C338.131 141.09 335.97 144.825 336.945 148.465L340.476 161.634ZM458.146 155.445C454.888 153.564 450.716 154.675 448.835 157.94L442.019 169.739C440.137 173.004 441.255 177.169 444.513 179.05C445.584 179.67 446.756 179.964 447.915 179.964C450.273 179.964 452.563 178.743 453.824 176.555L460.641 164.756C462.529 161.491 461.411 157.327 458.146 155.445ZM309.101 176.555C310.368 178.743 312.652 179.964 315.01 179.964C316.169 179.964 317.341 179.67 318.412 179.05C321.677 177.169 322.795 172.997 320.906 169.739L314.09 157.94C312.202 154.675 308.017 153.557 304.779 155.445C301.514 157.327 300.396 161.498 302.284 164.756L309.101 176.555ZM414.099 166.454C414.692 166.61 415.285 166.685 415.871 166.685C418.877 166.685 421.638 164.681 422.449 161.634L425.98 148.465C426.955 144.832 424.794 141.09 421.161 140.115C417.541 139.134 413.785 141.295 412.811 144.935L409.28 158.104C408.305 161.737 410.466 165.479 414.099 166.454Z" fill="#ffffff" fill-rule="nonzero" opacity="1" stroke="none"/>
<path d="M517.646 395.829C540.037 349.969 551.87 299.801 551.87 250.771C551.87 162.48 481.799 100.813 381.463 100.813C284.937 100.813 213.29 164.954 211.109 253.327C211.055 255.468 210.721 257.472 210.121 259.292L173.176 370.118C171.868 374.044 172.393 378.291 174.615 381.781C176.844 385.271 180.484 387.534 184.601 387.991L204.981 390.254C208.444 390.642 211.055 393.553 211.055 397.029L211.055 458.88C211.055 468.559 215.185 477.809 222.404 484.271C229.622 490.733 239.254 493.821 248.899 492.757L290.035 488.183L305.399 486.479L301.773 513.922C300.996 519.757 302.775 525.653 306.66 530.083C310.546 534.514 316.149 537.056 322.038 537.056L502.643 537.056C508.43 537.056 513.965 534.596 517.836 530.295C521.708 525.994 523.583 520.22 522.976 514.474L513.181 421.445C512.254 412.577 513.801 403.716 517.646 395.829ZM507.707 521.168C506.399 522.626 504.599 523.424 502.643 523.424L322.038 523.424C320.048 523.424 318.221 522.599 316.912 521.099C315.603 519.6 315.024 517.684 315.283 515.708L319.359 484.925L341.314 482.485C345.057 482.062 347.749 478.695 347.34 474.96C346.931 471.225 343.577 468.566 339.815 468.934L267.18 477.005C267.173 477.005 267.167 477.012 267.153 477.012L247.392 479.206C241.653 479.888 235.832 477.993 231.497 474.121C227.1 470.182 224.687 464.776 224.687 458.88L224.687 397.029C224.687 386.6 216.869 377.861 206.495 376.703L186.107 374.44L223.058 263.6C224.088 260.498 224.653 257.158 224.742 253.661C226.732 172.997 292.646 114.445 381.463 114.445C489.767 114.445 538.238 182.915 538.238 250.771C538.238 297.749 526.882 345.838 505.403 389.851C500.434 400.042 498.437 411.459 499.637 422.863L509.432 515.892C509.63 517.841 509.023 519.716 507.707 521.168Z" fill="#ffffff" fill-rule="nonzero" opacity="1" stroke="none"/>
<path d="M431.978 254.166L404.931 259.578C403.895 259.769 403.172 259.333 402.832 259.053C402.525 258.801 402.034 258.283 401.925 257.445C412.77 249.279 417.657 235.932 414.672 222.593C411.87 210.058 402.007 200.078 389.533 197.182C379.097 194.748 368.457 197.113 360.264 203.63C352.077 210.139 347.381 219.866 347.381 230.322C347.381 241.038 352.323 250.901 360.993 257.438C360.884 258.276 360.393 258.801 360.087 259.053C359.746 259.333 359.016 259.769 357.994 259.578L327.716 253.518C316.939 251.358 306.149 258.365 303.743 269.135L298.453 292.958C297.417 297.647 298.542 302.48 301.541 306.222C307.117 313.168 318.732 314.17 324.328 306.672C329.236 300.149 337.259 297.238 345.329 299.01C352.664 300.653 358.737 306.651 360.434 313.931C361.927 320.345 360.564 326.63 356.597 331.626C352.677 336.561 346.842 339.383 340.565 339.383C334.116 339.383 328.179 336.371 324.274 331.115C318.841 323.781 307.165 324.64 301.541 331.64C298.542 335.382 297.417 340.222 298.453 344.905L304.275 371.079C306.374 380.513 314.581 387.098 324.24 387.098L435.993 387.098C447.267 387.098 456.442 377.923 456.442 366.649L456.442 274.213C456.442 268.064 453.715 262.298 448.951 258.399C444.2 254.507 438.031 252.932 431.978 254.166ZM442.809 366.649C442.809 370.411 439.756 373.465 435.993 373.465L324.233 373.465C321.009 373.465 318.275 371.27 317.58 368.128L311.759 341.953C311.568 341.087 311.929 340.467 312.175 340.167C312.366 339.929 312.761 339.547 313.456 339.424C319.973 348.061 329.836 353.016 340.565 353.016C351.021 353.016 360.755 348.32 367.271 340.113C373.781 331.913 376.132 321.245 373.706 310.85C370.809 298.383 360.83 288.52 348.294 285.712C334.934 282.726 321.581 287.614 313.817 298.479C312.938 298.479 312.406 297.988 312.175 297.695C311.936 297.395 311.568 296.775 311.759 295.909L317.048 272.093C317.839 268.501 321.411 266.149 325.037 266.878L355.315 272.938C360.114 273.913 364.974 272.665 368.723 269.584C372.492 266.51 374.646 261.964 374.646 256.927C374.646 252.891 372.69 249.129 369.289 246.613C364.026 242.708 361.014 236.771 361.014 230.322C361.014 224.051 363.836 218.21 368.757 214.297C373.76 210.33 380.072 208.967 386.459 210.453C393.739 212.15 399.737 218.223 401.38 225.558C403.179 233.615 400.241 241.658 393.732 246.552C390.269 249.135 388.279 252.966 388.279 257.063L388.279 257.104C388.279 261.964 390.433 266.51 394.189 269.591C397.944 272.665 402.818 273.92 407.603 272.945L434.657 267.533C436.681 267.158 438.733 267.642 440.315 268.944C441.896 270.239 442.809 272.168 442.809 274.213L442.809 366.649Z" fill="#ffffff" fill-rule="nonzero" opacity="1" stroke="none"/>
</g>
</svg>
